[
  {
    "id": 1,
    "name": "John Doe",
    "email": "john.doe@example.com",
    "address": {
      "street": "1234 Second St"
    }
  },
  {
    "id": 2,
    "name": "Jane Smith",
    "email": "jane.smith@example.com",
    "address": {
      "street": "456 Oak Rd",
      "city": "Someville",
      "state": "NY",
      "zipCode": "67890"
    }
  },
  {
    "id": 3,
    "name": "Bob Johnson",
    "email": "bob.johnson@example.com",
    "address": {
      "street": "789 Elm Ave",
      "city": "Othertown",
      "state": "TX",
      "zipCode": "54321"
    }
  },
  {
    "id": 4,
    "name": "Alice Williams",
    "email": "alice.williams@example.com",
    "address": {
      "street": "321 Pine St",
      "city": "Newville",
      "state": "FL",
      "zipCode": "98765"
    }
  },
  {
    "id": 5,
    "name": "Tom Davis",
    "email": "tom.davis@example.com",
    "address": {
      "street": "555 Maple Ln",
      "city": "Oldtown",
      "state": "IL",
      "zipCode": "45678"
    }
  }
]